.....................
----------------------------------------------------------------------
Ran 21 tests in 0.003s

OK
Name               Stmts   Miss Branch BrPart  Cover   Missing
--------------------------------------------------------------
Diplomacy.py          73      0     70      5    97%   74->66, 81->66, 88->66, 134->113, 147->144
TestDiplomacy.py     105      0      0      0   100%
--------------------------------------------------------------
TOTAL                178      0     70      5    98%
