.......
----------------------------------------------------------------------
Ran 7 tests in 0.004s

OK
Name               Stmts   Miss Branch BrPart  Cover   Missing
--------------------------------------------------------------
Diplomacy.py          96      2     56      3    97%   50->53, 53, 94->95, 95, 112->110
TestDiplomacy.py      41      0      0      0   100%
--------------------------------------------------------------
TOTAL                137      2     56      3    97%
