.............................
----------------------------------------------------------------------
Ran 29 tests in 0.007s

OK
Name               Stmts   Miss Branch BrPart  Cover   Missing
--------------------------------------------------------------
Diplomacy.py          82      1     46      2    98%   156, 86->84, 153->156
TestDiplomacy.py     163      0      0      0   100%
--------------------------------------------------------------
TOTAL                245      1     46      2    99%
