A Austin
B [dead]
C [dead]
D Berlin
E London
F Barcelona
G Venice
H Bejing
I [dead]
J Tokyo
K [dead]
L Atlanta
M NewDelhi
N CapeTown
O Vancover
P Boston
Q Sydney
R [dead]
S [dead]
T Ankara
U [dead]
V Bangkok
W [dead]
X Houston
Y OklahomaCity
Z NewOrleans
